@startuml

title
<font size="26">Diagram klas</font>
<font size="18">Diagram klas dla systemu zarządzania salą restauracyjną</font>
end title

component "Frontend(Angular)" as frontend
component "Backend(Java+Spring-boot)" as backend
database "Database(PostgreSQL)" as database


frontend<->backend: HTTP/REST/JSON
backend<->database: TCP(Port: 5432)

@enduml
