@startuml

title
<font size="26">Uzupełnianie szczegółowych danych użytkownika</font>
<font size="18">Diagram czynności przedstawiający proces uzupełniania szczegółowych danych użytkownika</font>
end title

|#pink|Użytkownik|
start
:Użytkownik wpisuje dane i zatwierdza przyciskiem <b>"Zmień"</b>;
|System|
:System zapisuje dane w bazie danych;
|#pink|Użytkownik|
:Użytkownik dostaje informację o statusie operacji;
stop
@enduml