@startuml

title
<font size="26">Uwierzytelnianie użytkownika</font>
<font size="18">Diagram sekwencji czynności przedstawiający proces uwierzytelniania użytkownika</font>
end title

actor Klient as client

participant Frontend as frontend
participant Backend as backend
database "Baza danych" as database


client -> frontend+: Użytkownik wpisuje login oraz hasło i klika "Zaloguj"
    frontend -> backend+: Żądanie <b>POST /user/authenticate</b> z danymi logowania
        backend -> database+: Sprawdzenie czy użytkownik o danym loginie u haśle istnieje w bazie
        return Status operacji
    return Kod odpowiedzi http <b>[Patrz notatka poniżej]</b>
    note over frontend, backend
        *200[OK, zwraca token autoryzacyjny]
        *401[Niepoprawne dane logowania]
        *500[Nieznany błąd serwera]
    end note
    frontend -> backend+: Żądanie <b>GET /user/{userId}/dashboard</b> (Token autoryzacyjny w nagłówku żądania)
        backend ->database+: Pobranie danych potrzebnych do zwizualizowania na  ekranie panelu użytkownika
        return Status operacji
    return Kod odpowiedzi http <b>[Patrz notatka poniżej]</b>
    note over frontend, backend
        *200[OK, zwraca dane do wizualizacji]
        *401[Niepoprawny token autoryzacyjny]
        *404[Nie znaleziono użytkownika]
        *500[Nieznany błąd serwera]
    end note
return Ekran panelu użytkownika, bądź wyświetlenie błędu

@enduml