@startuml

title
<font size="26">Uzupełnianie szczegółowych danych użytkownika</font>
<font size="18">Diagram sekwencji czynności przedstawiający proces uzupełniania szczegółowych danych użytkownika</font>
end title

actor Klient as client

participant Frontend as frontend
participant Backend as backend
database "Baza danych" as database


client -> frontend+: Użytkownik wypełnia dane i klika "Zmień"
    frontend -> backend+: Żądanie <b>PUT /user/{userId}/edit</b> z danymi użytkownika <b>[Patrz notatka poniżej]</b>
        note over frontend, backend
            * Pierwsze imię
            * Nazwisko
            * Adres
            * Adres email
            * Numer telefonu
        end note
        backend -> database+: Zapis danych użytkownika[Tabele: Uzytkownik i Dane_uzytkownika]
        return Status operacji
    return Kod odpowiedzi http <b>[Patrz notatka poniżej]</b>
    note over frontend, backend
    *200[Zaaktualizowano, zwraca zaktualizowany obiekt]
    *400[Zły format żądania]
    *422[Błąd walidacji danych w żądaniu]
    *500[Nieudany zapis]
    end note
return Wyświetlenie wiadomości o pomyślnej edycji, bądź wyświetlenie błędu

@enduml