@startuml

title
<font size="26">Uwierzytelnianie użytkownika</font>
<font size="18">Diagram przypadku użycia przedstawiający proces uwierzytelniania użytkownika</font>
end title

left to right direction
actor Klient as client

(Użytkownik wchodzi na ekran logowania) as (STEP1)
(Użytkownik wpisuje login oraz hasło) as (STEP2)
(Użytkownik klika przycisk "Zaloguj") as (STEP3)
(Poprawne dane logowania?) as (STEP4)
(Wyświetl panel użytkownika) as (STEP41)
(Wyświetl błąd o niepoprawnych danych logowania) as (STEP42)
(Wyświetl catpcha) as (EXTRA1)

client -> (STEP1)
(STEP1) -> (STEP2)
(STEP2) -> (STEP3)
(STEP3) -> (STEP4)
(STEP4) -> (STEP41): Tak
(STEP4) -> (STEP42): Nie
(STEP42) --> (STEP1)
(STEP4) ---> (EXTRA1): 3 niepoprawna próba
(EXTRA1) --> (STEP1)

legend
<b>Szczegółowy opis przypadku</b>:
1. Użytkownik wchodzi na ekran logowania
2. Użytkownik wpisuje login oraz hasło
3. Użytkownik klika przycisk "Zaloguj"
4. Jeżeli poprawne login i hasło 4.1. w przeciwnym wypadku 4.2.
    4.1. Użytkownik zostaje przekierowany na panel użytkownika
    4.2. Użytkownikowi zostaje wyświetlony błąd o niepoprawnych danych logowania

<b>Przypadki nadzwyczajne</b>:
1. Gdy użytkownik 3 razy wpisze błędne dane logowania, pojawia się captcha
end legend

@enduml